<svg width="42" height="1" viewBox="0 0 42 1" fill="none" xmlns="http://www.w3.org/2000/svg">
<path d="M0.707031 0.538086H28.475H41.3742" stroke="#333333" stroke-width="0.396" stroke-miterlimit="0"/>
</svg>
